{
  "stats": {
    "suites": 1,
    "tests": 1,
    "passes": 0,
    "pending": 0,
    "failures": 1,
    "start": "2022-03-29T19:56:42.984Z",
    "end": "2022-03-29T19:56:57.428Z",
    "duration": 14444,
    "testsRegistered": 1,
    "passPercent": 0,
    "pendingPercent": 0,
    "other": 0,
    "hasOther": false,
    "skipped": 0,
    "hasSkipped": false
  },
  "results": [
    {
      "uuid": "67971542-c2fb-42f7-9ca5-552215a89949",
      "title": "",
      "fullFile": "cypress\\integration\\tests\\Cenario4-AdicionarCliente.spec.js",
      "file": "cypress\\integration\\tests\\Cenario4-AdicionarCliente.spec.js",
      "beforeHooks": [],
      "afterHooks": [],
      "tests": [],
      "suites": [
        {
          "uuid": "faacf010-c34a-4738-a88e-6188efb3f2c7",
          "title": "Criação de conta de usuário",
          "fullFile": "",
          "file": "",
          "beforeHooks": [],
          "afterHooks": [],
          "tests": [
            {
              "title": "Usuário novo",
              "fullTitle": "Criação de conta de usuário Usuário novo",
              "timedOut": null,
              "duration": 12532,
              "state": "failed",
              "speed": null,
              "pass": false,
              "fail": true,
              "pending": false,
              "context": null,
              "code": "_BuscaPage[\"default\"].expandeMenuLateral();\n_BuscaPage[\"default\"].clicarMyAccount();\n_MyAccountPage[\"default\"].preencheEmail(email);\n_MyAccountPage[\"default\"].preencheSenha(password);\n_MyAccountPage[\"default\"].clicarRegister();\n_MyAccountPage[\"default\"].verificaUsuarioRegistrado(msgUserLogado);",
              "err": {
                "message": "CypressError: Timed out retrying: `cy.click()` failed because this element is `disabled`:\n\n`<input type=\"submit\" class=\"woocommerce-Button button disabled\" name=\"register\" value=\"Register\" disabled=\"disabled\">`\n\nFix this problem, or use `{force: true}` to disable error checking.\n\nhttps://on.cypress.io/element-cannot-be-interacted-with",
                "estack": "CypressError: Timed out retrying: `cy.click()` failed because this element is `disabled`:\n\n`<input type=\"submit\" class=\"woocommerce-Button button disabled\" name=\"register\" value=\"Register\" disabled=\"disabled\">`\n\nFix this problem, or use `{force: true}` to disable error checking.\n\nhttps://on.cypress.io/element-cannot-be-interacted-with\n    at cypressErr (http://practice.automationtesting.in/__cypress/runner/cypress_runner.js:146621:16)\n    at cypressErrByPath (http://practice.automationtesting.in/__cypress/runner/cypress_runner.js:146630:10)\n    at Object.throwErrByPath (http://practice.automationtesting.in/__cypress/runner/cypress_runner.js:146593:11)\n    at Object.ensureNotDisabled (http://practice.automationtesting.in/__cypress/runner/cypress_runner.js:137570:24)\n    at runAllChecks (http://practice.automationtesting.in/__cypress/runner/cypress_runner.js:127486:14)\n    at retryActionability (http://practice.automationtesting.in/__cypress/runner/cypress_runner.js:127542:16)\n    at tryCatcher (http://practice.automationtesting.in/__cypress/runner/cypress_runner.js:9065:23)\n    at Function.Promise.attempt.Promise.try (http://practice.automationtesting.in/__cypress/runner/cypress_runner.js:6339:29)\n    at tryFn (http://practice.automationtesting.in/__cypress/runner/cypress_runner.js:140680:21)\n    at whenStable (http://practice.automationtesting.in/__cypress/runner/cypress_runner.js:140715:12)\n    at http://practice.automationtesting.in/__cypress/runner/cypress_runner.js:140259:16\n    at tryCatcher (http://practice.automationtesting.in/__cypress/runner/cypress_runner.js:9065:23)\n    at Promise._settlePromiseFromHandler (http://practice.automationtesting.in/__cypress/runner/cypress_runner.js:7000:31)\n    at Promise._settlePromise (http://practice.automationtesting.in/__cypress/runner/cypress_runner.js:7057:18)\n    at Promise._settlePromise0 (http://practice.automationtesting.in/__cypress/runner/cypress_runner.js:7102:10)\n    at Promise._settlePromises (http://practice.automationtesting.in/__cypress/runner/cypress_runner.js:7182:18)",
                "diff": null
              },
              "uuid": "d9156f08-8e70-45c8-a026-aeb0bc9642ce",
              "parentUUID": "faacf010-c34a-4738-a88e-6188efb3f2c7",
              "isHook": false,
              "skipped": false
            }
          ],
          "suites": [],
          "passes": [],
          "failures": [
            "d9156f08-8e70-45c8-a026-aeb0bc9642ce"
          ],
          "pending": [],
          "skipped": [],
          "duration": 12532,
          "root": false,
          "rootEmpty": false,
          "_timeout": 2000
        }
      ],
      "passes": [],
      "failures": [],
      "pending": [],
      "skipped": [],
      "duration": 0,
      "root": true,
      "rootEmpty": true,
      "_timeout": 2000
    }
  ],
  "meta": {
    "mocha": {
      "version": "7.0.1"
    },
    "mochawesome": {
      "options": {
        "quiet": false,
        "reportFilename": "mochawesome",
        "saveHtml": false,
        "saveJson": true,
        "consoleReporter": "spec",
        "useInlineDiffs": false,
        "code": true
      },
      "version": "7.1.3"
    },
    "marge": {
      "options": {
        "id": "default",
        "reportDir": "cypress/reports/mocha",
        "quite": true,
        "overwrite": false,
        "html": false,
        "json": true
      },
      "version": "6.2.0"
    }
  }
}