{
  "stats": {
    "suites": 1,
    "tests": 1,
    "passes": 1,
    "pending": 0,
    "failures": 0,
    "start": "2022-03-29T20:00:41.083Z",
    "end": "2022-03-29T20:01:04.572Z",
    "duration": 23489,
    "testsRegistered": 1,
    "passPercent": 100,
    "pendingPercent": 0,
    "other": 0,
    "hasOther": false,
    "skipped": 0,
    "hasSkipped": false
  },
  "results": [
    {
      "uuid": "7c0981a5-75f0-447c-bd29-bad527453928",
      "title": "",
      "fullFile": "cypress\\integration\\tests\\Cenario3-BuscaShop.spec.js",
      "file": "cypress\\integration\\tests\\Cenario3-BuscaShop.spec.js",
      "beforeHooks": [],
      "afterHooks": [],
      "tests": [],
      "suites": [
        {
          "uuid": "78f8b782-9494-463a-8571-a8a19e69a4ee",
          "title": "Busca pela guia shop e verificaçao se o produto existe na lista",
          "fullFile": "",
          "file": "",
          "beforeHooks": [],
          "afterHooks": [],
          "tests": [
            {
              "title": "Busca um produto pelo menu Shop",
              "fullTitle": "Busca pela guia shop e verificaçao se o produto existe na lista Busca um produto pelo menu Shop",
              "timedOut": null,
              "duration": 21342,
              "state": "passed",
              "speed": "slow",
              "pass": true,
              "fail": false,
              "pending": false,
              "context": null,
              "code": "_BuscaPage[\"default\"].expandeMenuLateral();\ncy.wait(3000);\n_BuscaPage[\"default\"].clicaMenuShop();\ncy.wait(3000);\n_ShopPage[\"default\"].clicaCategoriaHTML();\ncy.wait(3000);\n_ShopPage[\"default\"].verificaProdutoLista(verificaProduto);\ncy.wait(3000);",
              "err": {},
              "uuid": "8186cfae-7182-41cb-8d1c-5fbe30f385d9",
              "parentUUID": "78f8b782-9494-463a-8571-a8a19e69a4ee",
              "isHook": false,
              "skipped": false
            }
          ],
          "suites": [],
          "passes": [
            "8186cfae-7182-41cb-8d1c-5fbe30f385d9"
          ],
          "failures": [],
          "pending": [],
          "skipped": [],
          "duration": 21342,
          "root": false,
          "rootEmpty": false,
          "_timeout": 2000
        }
      ],
      "passes": [],
      "failures": [],
      "pending": [],
      "skipped": [],
      "duration": 0,
      "root": true,
      "rootEmpty": true,
      "_timeout": 2000
    }
  ],
  "meta": {
    "mocha": {
      "version": "7.0.1"
    },
    "mochawesome": {
      "options": {
        "quiet": false,
        "reportFilename": "mochawesome",
        "saveHtml": false,
        "saveJson": true,
        "consoleReporter": "spec",
        "useInlineDiffs": false,
        "code": true
      },
      "version": "7.1.3"
    },
    "marge": {
      "options": {
        "id": "default",
        "reportDir": "cypress/reports/mocha",
        "quite": true,
        "overwrite": false,
        "html": false,
        "json": true
      },
      "version": "6.2.0"
    }
  }
}