{
  "stats": {
    "suites": 1,
    "tests": 1,
    "passes": 1,
    "pending": 0,
    "failures": 0,
    "start": "2022-03-29T20:00:27.772Z",
    "end": "2022-03-29T20:00:37.256Z",
    "duration": 9484,
    "testsRegistered": 1,
    "passPercent": 100,
    "pendingPercent": 0,
    "other": 0,
    "hasOther": false,
    "skipped": 0,
    "hasSkipped": false
  },
  "results": [
    {
      "uuid": "b89ed4a6-2ebe-4dc3-84b6-86049b83e57b",
      "title": "",
      "fullFile": "cypress\\integration\\tests\\Cenario2-buscaProdutoInexistente.spec.js",
      "file": "cypress\\integration\\tests\\Cenario2-buscaProdutoInexistente.spec.js",
      "beforeHooks": [],
      "afterHooks": [],
      "tests": [],
      "suites": [
        {
          "uuid": "ab43086a-81ab-4dbe-8a23-7a2cadd8072f",
          "title": "Busca de um produto Inexistente",
          "fullFile": "",
          "file": "",
          "beforeHooks": [],
          "afterHooks": [],
          "tests": [
            {
              "title": "Busca produto Inexistente",
              "fullTitle": "Busca de um produto Inexistente Busca produto Inexistente",
              "timedOut": null,
              "duration": 7957,
              "state": "passed",
              "speed": "slow",
              "pass": true,
              "fail": false,
              "pending": false,
              "context": null,
              "code": "_BuscaPage[\"default\"].expandeMenuLateral();\n_BuscaPage[\"default\"].digitarProduto(produtoInexistente);\n_BuscaPage[\"default\"].verificaProdutoInexistente(expectedMensagemProdutoInexistente);",
              "err": {},
              "uuid": "3995c077-89cb-49c2-acfe-3681c29ac4fc",
              "parentUUID": "ab43086a-81ab-4dbe-8a23-7a2cadd8072f",
              "isHook": false,
              "skipped": false
            }
          ],
          "suites": [],
          "passes": [
            "3995c077-89cb-49c2-acfe-3681c29ac4fc"
          ],
          "failures": [],
          "pending": [],
          "skipped": [],
          "duration": 7957,
          "root": false,
          "rootEmpty": false,
          "_timeout": 2000
        }
      ],
      "passes": [],
      "failures": [],
      "pending": [],
      "skipped": [],
      "duration": 0,
      "root": true,
      "rootEmpty": true,
      "_timeout": 2000
    }
  ],
  "meta": {
    "mocha": {
      "version": "7.0.1"
    },
    "mochawesome": {
      "options": {
        "quiet": false,
        "reportFilename": "mochawesome",
        "saveHtml": false,
        "saveJson": true,
        "consoleReporter": "spec",
        "useInlineDiffs": false,
        "code": true
      },
      "version": "7.1.3"
    },
    "marge": {
      "options": {
        "id": "default",
        "reportDir": "cypress/reports/mocha",
        "quite": true,
        "overwrite": false,
        "html": false,
        "json": true
      },
      "version": "6.2.0"
    }
  }
}